[
  {
    "qProperty": {
      "qInfo": {
        "qId": "b18c7085-b125-40e4-a83a-ea9a35866713",
        "qType": "appprops"
      },
      "qMetaDef": {},
      "sheetTitleBgColor": "",
      "sheetTitleGradientColor": "",
      "sheetTitleColor": "",
      "sheetLogoThumbnail": {
        "qStaticContentUrlDef": {}
      },
      "sheetLogoPosition": "",
      "rtl": false,
      "theme": "card"
    },
    "qChildren": []
  },
  {
    "qProperty": {
      "qInfo": {
        "qId": "d71f3256-b04c-481f-8862-40fa4acc0898",
        "qType": "appprops"
      },
      "qMetaDef": {},
      "sheetTitleBgColor": "",
      "sheetTitleGradientColor": "",
      "sheetTitleColor": "",
      "sheetLogoThumbnail": {
        "qStaticContentUrlDef": {}
      },
      "sheetLogoPosition": "",
      "rtl": false,
      "theme": "shookai-theme"
    },
    "qChildren": []
  }
]