[
  {
    "qInfo": {
      "qId": "fe737e5e-043c-4aa5-a34a-af818de55842",
      "qType": "variable"
    },
    "qMetaDef": {},
    "qName": "kaszanka",
    "qNumberPresentation": {
      "qType": "U",
      "qnDec": 10,
      "qUseThou": 0
    },
    "qDefinition": "2",
    "tags": []
  },
  {
    "qInfo": {
      "qId": "d3c5ce47-f611-4e1f-95d9-cd9a269b56a5",
      "qType": "variable"
    },
    "qMetaDef": {},
    "qName": "Type",
    "qNumberPresentation": {
      "qType": "U",
      "qnDec": 10,
      "qUseThou": 0
    },
    "qDefinition": "kaszanka"
  }
]